\boolfalse {citerequest}\boolfalse {citetracker}\boolfalse {pagetracker}\boolfalse {backtracker}\relax 
\babel@toc {spanish}{}
\contentsline {chapter}{Objetivo}{2}{chapter*.2}%
\contentsline {chapter}{Introducción}{3}{chapter*.3}%
\contentsline {chapter}{Desarrollo}{4}{chapter*.4}%
\contentsline {chapter}{Resultados}{5}{chapter*.5}%
\contentsline {chapter}{Conclusiones}{6}{chapter*.8}%
\contentsline {chapter}{Referencias}{7}{chapter*.9}%
