\relax 
\providecommand\hyper@newdestlabel[2]{}
\@nameuse{bbl@beforestart}
\catcode `"\active 
\catcode `<\active 
\catcode `>\active 
\@nameuse{es@quoting}
\providecommand\HyperFirstAtBeginDocument{\AtBeginDocument}
\HyperFirstAtBeginDocument{\ifx\hyper@anchor\@undefined
\global\let\oldcontentsline\contentsline
\gdef\contentsline#1#2#3#4{\oldcontentsline{#1}{#2}{#3}}
\global\let\oldnewlabel\newlabel
\gdef\newlabel#1#2{\newlabelxx{#1}#2}
\gdef\newlabelxx#1#2#3#4#5#6{\oldnewlabel{#1}{{#2}{#3}}}
\AtEndDocument{\ifx\hyper@anchor\@undefined
\let\contentsline\oldcontentsline
\let\newlabel\oldnewlabel
\fi}
\fi}
\global\let\hyper@last\relax 
\gdef\HyperFirstAtBeginDocument#1{#1}
\providecommand\HyField@AuxAddToFields[1]{}
\providecommand\HyField@AuxAddToCoFields[2]{}
\bibstyle{biblatex}
\bibdata{ProyectoIoT-blx,Bibliografía}
\citation{biblatex-control}
\abx@aux@refcontext{none/global//global/global}
\@writefile{toc}{\boolfalse {citerequest}\boolfalse {citetracker}\boolfalse {pagetracker}\boolfalse {backtracker}\relax }
\@writefile{lof}{\boolfalse {citerequest}\boolfalse {citetracker}\boolfalse {pagetracker}\boolfalse {backtracker}\relax }
\@writefile{lot}{\boolfalse {citerequest}\boolfalse {citetracker}\boolfalse {pagetracker}\boolfalse {backtracker}\relax }
\babel@aux{spanish}{}
\@writefile{toc}{\contentsline {chapter}{Objetivo}{2}{chapter*.2}\protected@file@percent }
\citation{ford}
\abx@aux@cite{ford}
\abx@aux@segm{0}{0}{ford}
\citation{host}
\abx@aux@cite{host}
\abx@aux@segm{0}{0}{host}
\citation{thi}
\abx@aux@cite{thi}
\abx@aux@segm{0}{0}{thi}
\@writefile{toc}{\contentsline {chapter}{Introducción}{3}{chapter*.3}\protected@file@percent }
\@writefile{toc}{\contentsline {chapter}{Desarrollo}{4}{chapter*.4}\protected@file@percent }
\@writefile{toc}{\contentsline {chapter}{Resultados}{5}{chapter*.5}\protected@file@percent }
\@writefile{lof}{\contentsline {figure}{\numberline {1}{\ignorespaces Resultados con interruptor apagado\relax }}{5}{figure.caption.6}\protected@file@percent }
\providecommand*\caption@xref[2]{\@setref\relax\@undefined{#1}}
\newlabel{fig:im1}{{1}{5}{Resultados con interruptor apagado\relax }{figure.caption.6}{}}
\@writefile{lof}{\contentsline {figure}{\numberline {2}{\ignorespaces Resultados con interruptor encendido\relax }}{5}{figure.caption.7}\protected@file@percent }
\newlabel{fig:im2}{{2}{5}{Resultados con interruptor encendido\relax }{figure.caption.7}{}}
\@writefile{toc}{\contentsline {chapter}{Conclusiones}{6}{chapter*.8}\protected@file@percent }
\abx@aux@refcontextdefaultsdone
\abx@aux@defaultrefcontext{0}{ford}{none/global//global/global}
\abx@aux@defaultrefcontext{0}{host}{none/global//global/global}
\abx@aux@defaultrefcontext{0}{thi}{none/global//global/global}
\abx@aux@defaultlabelprefix{0}{ford}{}
\abx@aux@defaultlabelprefix{0}{host}{}
\abx@aux@defaultlabelprefix{0}{thi}{}
\@writefile{toc}{\contentsline {chapter}{Referencias}{7}{chapter*.9}\protected@file@percent }
